Spatial, ASM, APX
0.726379, 0.15846799314022064, 0.14217902719974518
0.726379, 0.17741000652313232, 0.157195046544075
0.726379, 0.22559601068496704, 0.18391501903533936
0.726379, 0.29005497694015503, 0.2235700488090515
0.726379, 0.3818310797214508, 0.2836250364780426
0.726379, 0.4848138391971588, 0.36814603209495544
0.726379, 0.5685141086578369, 0.49551400542259216
0.726379, 0.6309850811958313, 0.5889250040054321
0.726379, 0.6670951247215271, 0.6512901186943054
0.726379, 0.6929441094398499, 0.688965916633606
0.726379, 0.7095920443534851, 0.710439920425415
0.726379, 0.7190510034561157, 0.7214440107345581
0.726379, 0.7239710092544556, 0.7254037261009216
0.726379, 0.7259439826011658, 0.7267060279846191
0.726379, 0.7263758778572083, 0.7263748645782471
